com\advancelatam\picoplaca\core\services\ReglamentoServiceImpl.class
com\advancelatam\picoplaca\core\DAO\ReglamentoDAOImpl.class
com\advancelatam\picoplaca\core\gestor\ReglamentoGestorImpl.class
com\advancelatam\picoplaca\core\gestor\CatalogoGestorImpl.class
com\advancelatam\picoplaca\core\services\CatalogoServiceImpl.class
com\advancelatam\picoplaca\core\services\AutoServiceImpl.class
com\advancelatam\picoplaca\core\gestor\AutoGestorImpl.class
