C:\Users\USER\Documents\advance_latam\picoplaca-backend\picoplaca-client\src\main\java\com\advancelatam\picoplaca\cliente\gestor\ICatalogoGestor.java
C:\Users\USER\Documents\advance_latam\picoplaca-backend\picoplaca-client\src\main\java\com\advancelatam\picoplaca\cliente\models\Catalogo.java
C:\Users\USER\Documents\advance_latam\picoplaca-backend\picoplaca-client\src\main\java\com\advancelatam\picoplaca\cliente\gestor\IReglamentoGestor.java
C:\Users\USER\Documents\advance_latam\picoplaca-backend\picoplaca-client\src\main\java\com\advancelatam\picoplaca\cliente\gestor\IAutoGestor.java
C:\Users\USER\Documents\advance_latam\picoplaca-backend\picoplaca-client\src\main\java\com\advancelatam\picoplaca\cliente\models\Reglamento.java
C:\Users\USER\Documents\advance_latam\picoplaca-backend\picoplaca-client\src\main\java\com\advancelatam\picoplaca\cliente\DAO\IReglamentoDAO.java
C:\Users\USER\Documents\advance_latam\picoplaca-backend\picoplaca-client\src\main\java\com\advancelatam\picoplaca\cliente\models\CatalogoValor.java
C:\Users\USER\Documents\advance_latam\picoplaca-backend\picoplaca-client\src\main\java\com\advancelatam\picoplaca\cliente\repositories\ICatalogoRepository.java
C:\Users\USER\Documents\advance_latam\picoplaca-backend\picoplaca-client\src\main\java\com\advancelatam\picoplaca\cliente\models\ReglamentoDetallesID.java
C:\Users\USER\Documents\advance_latam\picoplaca-backend\picoplaca-client\src\main\java\com\advancelatam\picoplaca\cliente\repositories\IAutoRepository.java
C:\Users\USER\Documents\advance_latam\picoplaca-backend\picoplaca-client\src\main\java\com\advancelatam\picoplaca\cliente\models\Auto.java
C:\Users\USER\Documents\advance_latam\picoplaca-backend\picoplaca-client\src\main\java\com\advancelatam\picoplaca\cliente\services\ICatalogoService.java
C:\Users\USER\Documents\advance_latam\picoplaca-backend\picoplaca-client\src\main\java\com\advancelatam\picoplaca\cliente\models\ReglamentoDetalles.java
C:\Users\USER\Documents\advance_latam\picoplaca-backend\picoplaca-client\src\main\java\com\advancelatam\picoplaca\cliente\services\IAutoService.java
C:\Users\USER\Documents\advance_latam\picoplaca-backend\picoplaca-client\src\main\java\com\advancelatam\picoplaca\cliente\services\IReglamentoService.java
C:\Users\USER\Documents\advance_latam\picoplaca-backend\picoplaca-client\src\main\java\com\advancelatam\picoplaca\cliente\repositories\IReglamentoRepository.java
